commit e04486751174063690e057aa126bfe30d3284975
Author: Glenn Downing <downing@cs.utexas.edu>
Date:   Sun Jun 28 18:35:28 2020 -0500

    another commit

commit 95ed39267a7f57dcc4260ac0ec3a789d83a43502
Author: Glenn Downing <downing@cs.utexas.edu>
Date:   Sun Jun 28 18:19:07 2020 -0500

    another commit

commit 5ef8a1b70f625eb6727b06b88351ac7ce584e717
Author: Glenn Downing <downing@cs.utexas.edu>
Date:   Sun Jun 28 18:12:12 2020 -0500

    first commit
